6:748  0:141  Found UEFI Acpi 2.0 RSDP at CABB1000
6:748  0:000  Saving ACPI tables from RSDP CABB1000 to EFI\CLOVER\ACPI\origin ...
6:748  0:000   CABB1000: 'RSD PTR ', Rev: 2 (Acpi 2.0 or newer), Len: 36
6:748  0:000    (Xsdt: CABB10A0, Rsdt: CABB1028)
6:748  0:000    CABB10A0: 'XSDT', 'WN09   ', Rev: 1, Len: 188
6:748  0:000    CABB1028: 'RSDT', 'WN09   ', Rev: 1, Len: 112
6:748  0:000    Tables in Xsdt: 19
6:748  0:000    0. CABC17D0: 'FACP', 'WN09', Rev: 5, Len: 268
6:748  0:000        (Dsdt: CABB11E8, Facs: CB56BF80, XDsdt: CABB11E8, XFacs: 0)
6:748  0:000        CABB11E8: 'DSDT', 'WN09', Rev: 2, Len: 67044
6:750  0:001        CB56BF80: 'FACS', Ver: 2, Len: 64
6:750  0:000    1. CABC18E0: 'APIC', 'WN09', Rev: 3, Len: 114
6:750  0:000    2. CABC1958: 'FPDT', 'WN09', Rev: 1, Len: 68
6:750  0:000    3. CABC19A0: 'ASF!', ' HCG', Rev: 32, Len: 165
6:750  0:000    4. CABC1A48: 'LPIT', '', Rev: 1, Len: 148
6:750  0:000    5. CABC1AE0: 'SSDT', 'sensrhub', Rev: 1, Len: 552
6:750  0:000    6. CABC1D08: 'SLIC', 'WN09   ', Rev: 1, Len: 374
6:750  0:000    7. CABC1E80: 'SSDT', 'Cpu0Ist', Rev: 1, Len: 1304
6:750  0:000    8. CABC2398: 'SSDT', 'CpuPm', Rev: 1, Len: 2776
6:750  0:000    9. CABC2E70: 'MCFG', 'WN09', Rev: 1, Len: 60
6:750  0:000    10. CABC2EB0: 'HPET', 'WN09', Rev: 1, Len: 56
6:750  0:000    11. CABC2EE8: 'SSDT', 'SataTabl', Rev: 1, Len: 789
6:750  0:000    12. CABC3200: 'SSDT', 'SaSsdt ', Rev: 1, Len: 13733
6:750  0:000    13. CABC67A8: 'SSDT', 'SgPch', Rev: 1, Len: 2418
6:750  0:000    14. CABC7120: 'SSDT', 'MeSsdt ', Rev: 1, Len: 75
6:750  0:000    15. CABC7170: 'TPM2', '', Rev: 3, Len: 52
6:750  0:000    16. CABC71A8: 'BGRT', 'WN09', Rev: 0, Len: 56
6:750  0:000    17. CABC71E0: 'SSDT', 'OptTabl', Rev: 1, Len: 6478
6:750  0:000    18. CABC8B30: 'CSRT', 'HSWULT-R', Rev: 1, Len: 196
6:750  0:000    Tables in Rsdt: 19
6:750  0:000    0. CABB1160: 'FACP', 'WN09', Rev: 2, Len: 132
6:750  0:000        (Dsdt: CABB11E8, Facs: CB56BF40)
6:750  0:000        CABB11E8: 'DSDT', 'WN09', Rev: 2, Len: 67044
6:751  0:001        CB56BF40: 'FACS', Ver: 0, Len: 64
6:751  0:000    1. CABC18E0: 'APIC', 'WN09', Rev: 3, Len: 114
6:751  0:000    2. CABC1958: 'FPDT', 'WN09', Rev: 1, Len: 68
6:751  0:000    3. CABC19A0: 'ASF!', ' HCG', Rev: 32, Len: 165
6:751  0:000    4. CABC1A48: 'LPIT', '', Rev: 1, Len: 148
6:751  0:000    5. CABC1AE0: 'SSDT', 'sensrhub', Rev: 1, Len: 552
6:751  0:000    6. CABC1D08: 'SLIC', 'WN09   ', Rev: 1, Len: 374
6:751  0:000    7. CABC1E80: 'SSDT', 'Cpu0Ist', Rev: 1, Len: 1304
6:751  0:000    8. CABC2398: 'SSDT', 'CpuPm', Rev: 1, Len: 2776
6:751  0:000    9. CABC2E70: 'MCFG', 'WN09', Rev: 1, Len: 60
6:751  0:000    10. CABC2EB0: 'HPET', 'WN09', Rev: 1, Len: 56
6:751  0:000    11. CABC2EE8: 'SSDT', 'SataTabl', Rev: 1, Len: 789
6:751  0:000    12. CABC3200: 'SSDT', 'SaSsdt ', Rev: 1, Len: 13733
6:751  0:000    13. CABC67A8: 'SSDT', 'SgPch', Rev: 1, Len: 2418
6:751  0:000    14. CABC7120: 'SSDT', 'MeSsdt ', Rev: 1, Len: 75
6:751  0:000    15. CABC7170: 'TPM2', '', Rev: 3, Len: 52
6:751  0:000    16. CABC71A8: 'BGRT', 'WN09', Rev: 0, Len: 56
6:751  0:000    17. CABC71E0: 'SSDT', 'OptTabl', Rev: 1, Len: 6478
6:751  0:000    18. CABC8B30: 'CSRT', 'HSWULT-R', Rev: 1, Len: 196
6:751  0:000  Found UEFI Acpi 1.0 RSDP at CABB1000
6:751  0:000  Printing ACPI tables from RSDP CABB1000 ...
6:751  0:000   CABB1000: 'RSD PTR ', Rev: 2 (Acpi 2.0 or newer), Len: 36
6:751  0:000    (Xsdt: CABB10A0, Rsdt: CABB1028)
6:751  0:000    CABB10A0: 'XSDT', 'WN09   ', Rev: 1, Len: 188
6:751  0:000    CABB1028: 'RSDT', 'WN09   ', Rev: 1, Len: 112
6:751  0:000    Tables in Xsdt: 19
6:751  0:000    0. CABC17D0: 'FACP', 'WN09', Rev: 5, Len: 268
6:751  0:000        (Dsdt: CABB11E8, Facs: CB56BF80, XDsdt: CABB11E8, XFacs: 0)
6:751  0:000        CABB11E8: 'DSDT', 'WN09', Rev: 2, Len: 67044
6:752  0:001        CB56BF80: 'FACS', Ver: 2, Len: 64
6:752  0:000    1. CABC18E0: 'APIC', 'WN09', Rev: 3, Len: 114
6:752  0:000    2. CABC1958: 'FPDT', 'WN09', Rev: 1, Len: 68
6:752  0:000    3. CABC19A0: 'ASF!', ' HCG', Rev: 32, Len: 165
6:752  0:000    4. CABC1A48: 'LPIT', '', Rev: 1, Len: 148
6:752  0:000    5. CABC1AE0: 'SSDT', 'sensrhub', Rev: 1, Len: 552
6:752  0:000    6. CABC1D08: 'SLIC', 'WN09   ', Rev: 1, Len: 374
6:752  0:000    7. CABC1E80: 'SSDT', 'Cpu0Ist', Rev: 1, Len: 1304
6:752  0:000    8. CABC2398: 'SSDT', 'CpuPm', Rev: 1, Len: 2776
6:752  0:000    9. CABC2E70: 'MCFG', 'WN09', Rev: 1, Len: 60
6:752  0:000    10. CABC2EB0: 'HPET', 'WN09', Rev: 1, Len: 56
6:752  0:000    11. CABC2EE8: 'SSDT', 'SataTabl', Rev: 1, Len: 789
6:752  0:000    12. CABC3200: 'SSDT', 'SaSsdt ', Rev: 1, Len: 13733
6:752  0:000    13. CABC67A8: 'SSDT', 'SgPch', Rev: 1, Len: 2418
6:752  0:000    14. CABC7120: 'SSDT', 'MeSsdt ', Rev: 1, Len: 75
6:752  0:000    15. CABC7170: 'TPM2', '', Rev: 3, Len: 52
6:752  0:000    16. CABC71A8: 'BGRT', 'WN09', Rev: 0, Len: 56
6:752  0:000    17. CABC71E0: 'SSDT', 'OptTabl', Rev: 1, Len: 6478
6:752  0:000    18. CABC8B30: 'CSRT', 'HSWULT-R', Rev: 1, Len: 196
6:752  0:000    Tables in Rsdt: 19
6:752  0:000    0. CABB1160: 'FACP', 'WN09', Rev: 2, Len: 132
6:752  0:000        (Dsdt: CABB11E8, Facs: CB56BF40)
6:752  0:000        CABB11E8: 'DSDT', 'WN09', Rev: 2, Len: 67044
6:754  0:001        CB56BF40: 'FACS', Ver: 0, Len: 64
6:754  0:000    1. CABC18E0: 'APIC', 'WN09', Rev: 3, Len: 114
6:754  0:000    2. CABC1958: 'FPDT', 'WN09', Rev: 1, Len: 68
6:754  0:000    3. CABC19A0: 'ASF!', ' HCG', Rev: 32, Len: 165
6:754  0:000    4. CABC1A48: 'LPIT', '', Rev: 1, Len: 148
6:754  0:000    5. CABC1AE0: 'SSDT', 'sensrhub', Rev: 1, Len: 552
6:754  0:000    6. CABC1D08: 'SLIC', 'WN09   ', Rev: 1, Len: 374
6:754  0:000    7. CABC1E80: 'SSDT', 'Cpu0Ist', Rev: 1, Len: 1304
6:754  0:000    8. CABC2398: 'SSDT', 'CpuPm', Rev: 1, Len: 2776
6:754  0:000    9. CABC2E70: 'MCFG', 'WN09', Rev: 1, Len: 60
6:754  0:000    10. CABC2EB0: 'HPET', 'WN09', Rev: 1, Len: 56
6:754  0:000    11. CABC2EE8: 'SSDT', 'SataTabl', Rev: 1, Len: 789
6:754  0:000    12. CABC3200: 'SSDT', 'SaSsdt ', Rev: 1, Len: 13733
6:754  0:000    13. CABC67A8: 'SSDT', 'SgPch', Rev: 1, Len: 2418
6:754  0:000    14. CABC7120: 'SSDT', 'MeSsdt ', Rev: 1, Len: 75
6:754  0:000    15. CABC7170: 'TPM2', '', Rev: 3, Len: 52
6:754  0:000    16. CABC71A8: 'BGRT', 'WN09', Rev: 0, Len: 56
6:754  0:000    17. CABC71E0: 'SSDT', 'OptTabl', Rev: 1, Len: 6478
6:754  0:000    18. CABC8B30: 'CSRT', 'HSWULT-R', Rev: 1, Len: 196
